%YAML 1.1
%TAG !u! tag:unity3d.com,2011:
--- !u!1045 &1
EditorBuildSettings:
  m_ObjectHideFlags: 0
  serializedVersion: 2
  m_Scenes:
  - enabled: 1
    path: Assets/Scenes/Main Menu Demo.unity
    guid: 2ea1e15421ef1436d902c08e7005e6c7
  - enabled: 1
    path: Assets/Scenes/Learning.unity
    guid: 7a717e92ccab49a41bad8b763756c3ea
  - enabled: 1
    path: Assets/Scenes/Project.unity
    guid: d2c1204752e7f6c4ca511069580f27a3
  - enabled: 1
    path: Assets/Scenes/Start.unity
    guid: 2a573e8d09b131a4aa4c862647bc1b14
  m_configObjects: {}
